.tp 
.B 
.PS 20
GROFF
.SP 2
.PP
.PS 14
.B
PARAGRAPH
.SP 
[.lp --> First Paragraph]
[.pp --> standard Paragraph]
.SP
.PP
TEXT FORMATTING
.SP
.B
[.i --> Italics]
[.b --> Bold]
[.ps # --> Font Size]
.SP
.B
.PP
Lists (con groff -me)
[.bu --> bullet list]
[.np --> numbered list]
.SP
.B
.PP
Subheads(con groff -me)
[.sh --> numbered headings]
[.uh --> unnumbered headings]
.SP
.B
.PP
Smart and Block Quotes
[\*(lqI Love Linux. \*(rq]
[.q "I Love Linux."]
.SP
.B
.PP
Cover Page
.SP
[.tp   --> Title Page]
[.sp # --> Blank lines]
[(.(c) --> Centered] 
[.ce # --> Center so many lines]
[.in # --> if indentation needs to be changed.*]
.po # --> left margin]
[.bp ----> Page Break]
[.ti ----> Breaks line, centers text on next line.]
[.ls # --> Line Spacing]
.SP
.PP
[* --> proceeded by .br ]
.SP
.B
.PP
Common Examples:
[groff -Tps -me lorem-ipsum.me > lorem-ipsum.me.ps]
[ps2pdf lorem-ipsum.me.ps lorem-ipsum.me.pdf]

groff -ms groff.ms > groff.ps
groff -ms groff.ms -T pdf > groff.pdf
