\relax 
\@writefile{toc}{\contentsline {section}{\numberline {1}Encontrar Ayuda (NM)}{1}\protected@file@percent }
\@writefile{toc}{\contentsline {section}{\numberline {2}Los Documentos}{2}\protected@file@percent }
\@writefile{toc}{\contentsline {section}{\numberline {3}NAVEGACION}{3}\protected@file@percent }
\@writefile{toc}{\contentsline {section}{\numberline {4}Navegar Parafos, Secciones Y Oraciones(NM)}{4}\protected@file@percent }
\@writefile{toc}{\contentsline {section}{\numberline {5}Metodos insertar texto (NM)}{6}\protected@file@percent }
\@writefile{toc}{\contentsline {section}{\numberline {6}Abreviaturas}{9}\protected@file@percent }
\@writefile{toc}{\contentsline {section}{\numberline {7}Grabar Y Reproducir Utilizando Macros}{9}\protected@file@percent }
\@writefile{toc}{\contentsline {section}{\numberline {8}:sort ordenar contenido del documento (NM)}{10}\protected@file@percent }
\@writefile{toc}{\contentsline {section}{\numberline {9}Recuperar Texto Borrado (NM)}{10}\protected@file@percent }
